{
  "type": "service_account",
  "project_id": "igetbelle-nina-eynb",
  "private_key_id": "88161fb9c86c807a58c475cdede5ca258f1e5180",
  "private_key": "-----BEGIN PRIVATE KEY-----\nMIIEvQIBADANBgkqhkiG9w0BAQEFAASCBKcwggSjAgEAAoIBAQCfCZuGP+vXUcxr\nj/Ji60dXQNr8D9c5B5NGwVLsHv8PMzOKTT6DAd6cH4MRLcrn9JckqLrJDcgAgmER\nQQUZfuALrA63l8joXB6UpTxzBaUoZdde0I8NH2FbTcWIB5td9Cc2A2phRfuvgxwZ\n+qUDT5ABFmwEehFY7foioMY1A9+Ak9W5NRf/ak842DEBH4OYOtGNFpl94/xJBTZU\nR76j1bNmvyDwJElsWz1mwoG1aSPu38z3Yj+Ys6mY4KKlqz7kDrUxqlhQehDUaL8D\nvfEVsMHyCeo+MgR5T2+c6EmK50+sdx22543fzXK3cdBe0oJhoUbW+DLHSscI+flm\ngtL9+xDTAgMBAAECggEAN3QOph94uRH9EM5W6nX2YK6tDLHrTifdixDSvKFMNz0X\nrhQkBWMr/00fkuhgNUP8RZyN0Jf9EmxjszP0NsEeFwPN9+c1dwvT3+nDq6mevnjQ\nQW/ASYeVF1SFWVqpqnd9CqDjQXq4+Shiro5OZlqiMDbkwCTeEp+cFeHwasDoeDjH\nVStFU4zlTXwKmXiH0v4uADL53CAnIZtViAYPEUsbqPJ4fDIMxs6dgfO4ZWXnolI/\n1U9HFsktgzDWyA/3Y4aeJB2UjsaTVdPmAAX45hHmDBcNHlYDLBX09MQsu6ttUgTU\nASaSmHH5Vo6GkoB3tR/VuBzDo/vBksKqW7X3oIaR3QKBgQDMtBeLRc/a4fdy8/zo\n088Mb+s8Bvd/lNoKFe0M9qcryHop2PlWWF5GDcGBMOSGriksKnUFu1xSt9kn0SdJ\nO5IEa1+VtUYFTTedhhrC0AGaK7uMmptgSSjxiol45uPLu/1gH7GO9/nXdUeoSYul\nvkvPiJjNEGfj6h4z8steYBCibwKBgQDG5AEml2YYKKPmM66z+pSo/xFc4YBLJTui\nPQDaOf+hQVGO0DQV7+TgcV97dJnjUWVHCxQPwiBs+Ou4O81cVOLohcRouPTTmt9f\n/eusuoJICHrQ5mIq4ikuP+K//r+tWdpKlsMO5bbOfQUaG3uRi3uRgo+YKcy/+L/l\nwa8pZV4Z3QKBgQCzbz2gGH7dp+vHOPY9hMTeaxBxGs5CaFFEO/oBvgfFikMDgaz2\nMhnZIF+5hgkbwXhXvZO8hYKlA4D3tQ/R0sTo2NH9oduR9CDHFPFKSRjOcn1A/5kp\nKpgYOk7Myt9tDAlLBB0ZbGb1pVk9u9IMZCWB8oO2ZSYcE3GMKcx4mo6aQwKBgE21\nbBWt9b/esRsSemHruAXHkvsdSEkUBRbAiwK4wn44zSrlglRH5L8kzM+poS7F8LIv\nS+lUSeMJ5t+WzggTSozbJwBbs5yx2DDjPx+/x4NpfML+IMDsmHZvk6K8YBvVDYsz\nGIdLjX9kLYgj0MXvH5qczon/WvZutFuKr2uXJYspAoGATWw8ctCPOqxVKNcZvULy\nA98N5iovR8kCk/o0D8RVdtEHe1TKUkuCfWtm3km8DAzPeRBMC7h1UpKWetb7x7Dx\nnwK+Wo4vJvj6bHgIfPPFAcfsPb7H8hVeEw5xBuUU8x8qXZid1ZOlR0bF2ci3jYvc\nj7CO6f6bcQFJSDyIgyzSlFY=\n-----END PRIVATE KEY-----\n",
  "client_email": "webapp@igetbelle-nina-eynb.iam.gserviceaccount.com",
  "client_id": "114176054329944480911",
  "auth_uri": "https://accounts.google.com/o/oauth2/auth",
  "token_uri": "https://oauth2.googleapis.com/token",
  "auth_provider_x509_cert_url": "https://www.googleapis.com/oauth2/v1/certs",
  "client_x509_cert_url": "https://www.googleapis.com/robot/v1/metadata/x509/webapp%40igetbelle-nina-eynb.iam.gserviceaccount.com"
}
